{
    "items": [
    {
    	"class": "es.flameorb.items.Axe",
    	"id": 0,
        "name": "BronzeAxe",
        "description": "LevelEDes",
        "totalUses": 50,
        "price": 300,
        "power": 5,
        "hit": 90,
        "critical": 0,
        "weight": 7,
        "minRange": 1,
        "maxRange": 1,
        "level": 0,
        "weaponExp": 1,
        "physical": true,
        "doubleAttack": false,
        "onlyPower": false
    },
    {
    	"class": "es.flameorb.items.Axe",
    	"id": 1,
        "name": "IronAxe",
        "description": "LevelDDes",
        "totalUses": 40,
        "price": 500,
        "power": 9,
        "hit": 85,
        "critical": 0,
        "weight": 10,
        "minRange": 1,
        "maxRange": 1,
        "level": 1,
        "weaponExp": 2,
        "physical": true,
        "doubleAttack": false,
        "onlyPower": false
    },
    {
    	"class": "es.flameorb.items.Axe",
    	"id": 2,
        "name": "SteelAxe",
        "description": "LevelCDes",
        "totalUses": 35,
        "price": 750,
        "power": 14,
        "hit": 80,
        "critical": 0,
        "weight": 14,
        "minRange": 1,
        "maxRange": 1,
        "level": 2,
        "weaponExp": 3,
        "physical": true,
        "doubleAttack": false,
        "onlyPower": false
    },
    {
    	"class": "es.flameorb.items.Axe",
    	"id": 3,
        "name": "SilverAxe",
        "description": "LevelBDes",
        "totalUses": 30,
        "price": 1000,
        "power": 18,
        "hit": 85,
        "critical": 0,
        "weight": 12,
        "minRange": 1,
        "maxRange": 1,
        "level": 3,
        "weaponExp": 4,
        "physical": true,
        "doubleAttack": false,
        "onlyPower": false
    },
    {
    	"class": "es.flameorb.items.Axe",
    	"id": 4,
        "name": "GoldenAxe",
        "description": "LevelADes",
        "totalUses": 20,
        "price": 1500,
        "power": 21,
        "hit": 85,
        "critical": 0,
        "weight": 18,
        "minRange": 1,
        "maxRange": 1,
        "level": 4,
        "weaponExp": 5,
        "physical": true,
        "doubleAttack": false,
        "onlyPower": false
    },
    {
    	"class": "es.flameorb.items.Axe",
    	"id": 5,
        "name": "CarbonAxe",
        "description": "LevelSDes",
        "totalUses": 15,
        "price": 2200,
        "power": 26,
        "hit": 90,
        "critical": 5,
        "weight": 13,
        "minRange": 1,
        "maxRange": 1,
        "level": 5,
        "weaponExp": 7,
        "physical": true,
        "doubleAttack": false,
        "onlyPower": false
    },
    {
    	"class": "es.flameorb.items.Axe",
    	"id": 6,
        "name": "PlasmaAxe",
        "description": "LevelS+Des",
        "totalUses": 50,
        "price": 5000,
        "power": 30,
        "hit": 100,
        "critical": 10,
        "weight": 10,
        "minRange": 1,
        "maxRange": 1,
        "level": 6,
        "weaponExp": 8,
        "physical": true,
        "doubleAttack": false,
        "onlyPower": false
    },
    {
    	"class": "es.flameorb.items.Axe",
    	"id": 7,
        "name": "Gaia",
        "description": "GaiaDes",
        "totalUses": -1,
        "price": 0,
        "power": 34,
        "hit": 90,
        "critical": 5,
        "weight": 20,
        "minRange": 1,
        "maxRange": 2,
        "level": 7,
        "weaponExp": 0,
        "physical": true,
        "doubleAttack": false,
        "onlyPower": false,
        "statsUp": [0, 2, 0, 3, 0, 0, 0, 0]
    },
    {
    	"class": "es.flameorb.items.Axe",
    	"id": 8,
        "name": "ThrowingAxe",
        "description": "ThrowingAxeDes",
        "totalUses": 30,
        "price": 700,
        "power": 8,
        "hit": 75,
        "critical": 0,
        "weight": 13,
        "minRange": 1,
        "maxRange": 2,
        "level": 1,
        "weaponExp": 3,
        "physical": true,
        "doubleAttack": false,
        "onlyPower": false
    }]
}
