{
fileName: data/maps/fe7-0
finished: true
name: Prólogo
player: {
	money: 3000
	units: [
		{
			class: es.flameorb.units.PlayerUnit
			id: 0
			name: Linda
			shortDescription: Mock part
			fullDescription: null
			level: 1
			feclass: 1
			commander: true
			mapImage: null
			baseStats: [ 0, 0, 0, 2, 1, 5, 0, 0 ]
			baseGrowing: [ 30, 15, 0, 35, 30, 55, 10, 20 ]
			weaponSkills: [ 1, -1, -1, -1, -1, -1, -1, -1, -1, -1, -1, -1, -1 ]
			inventory: {
				0: {
					class: es.flameorb.items.Sword
					id: 0
					name: BronzeSword
					description: LevelEDes
					totalUses: 50
					remainUses: 50
					price: 300
					power: 3
					hit: 100
					critical: 0
					weight: 3
					minRange: 1
					maxRange: 1
					level: 0
					weaponExp: 1
					physical: true
					doubleAttack: false
					onlyPower: false
				}
				1: {
					class: es.flameorb.items.Item
					id: 0
					name: Potion
					description: PotionDes
					totalUses: 5
					remainUses: 5
					price: 300
					dropable: false
					useEffect: {
						class: es.flameorb.effects.HealEffect
						power: 10
						maxRange: 1
					}
				}
				2: {
					class: es.flameorb.items.Item
					id: 0
					name: Potion
					description: PotionDes
					totalUses: 5
					remainUses: 5
					price: 300
					dropable: false
					useEffect: {
						class: es.flameorb.effects.HealEffect
						power: 10
						maxRange: 1
					}
				}
			}
			exp: 0
			topStats: [ 0, 0, 0, 0, 0, 0, 0, 0 ]
		}
		{
			class: es.flameorb.units.PlayerUnit
			id: 1
			name: Mark
			shortDescription: Mock part
			fullDescription: null
			level: 1
			feclass: 2
			commander: false
			mapImage: null
			baseStats: [ 0, 0, 0, 0, 0, 0, 0, 0 ]
			baseGrowing: [ 45, 30, 0, 20, 25, 50, 15, 10 ]
			weaponSkills: [ 1, -1, -1, -1, -1, -1, -1, -1, -1, -1, -1, -1, -1 ]
			inventory: {
				0: {
					class: es.flameorb.items.Sword
					id: 0
					name: BronzeSword
					description: LevelEDes
					totalUses: 50
					remainUses: 50
					price: 300
					power: 3
					hit: 100
					critical: 0
					weight: 3
					minRange: 1
					maxRange: 1
					level: 0
					weaponExp: 1
					physical: true
					doubleAttack: false
					onlyPower: false
				}
			}
			exp: 0
			topStats: [ 0, 0, 0, 0, 0, 0, 0, 0 ]
		}
	]
	stock: {
		items: []
	}
}
preparationsMusic: null
battleMusic: null
victoryConditions: [
	{
		class: es.flameorb.game.endconditions.DefeatCommanderEndCondition
		winCondition: true
		name: DefeatCommander
	}
]
defeatConditions: [
	{
		class: es.flameorb.game.endconditions.DefeatCommanderEndCondition
		name: DefeatCommander
	}
]
enemies: [
	{
		class: es.flameorb.units.EnemyUnit
		id: 1
		name: Bandido
		shortDescription: Mock part
		fullDescription: null
		level: 1
		feclass: 5
		commander: false
		mapImage: null
		baseStats: [ 0, 0, 0, 0, 0, 0, 0, 0 ]
		baseGrowing: [ 45, 35, 0, 20, 25, 50, 10, 5 ]
		weaponSkills: [ -1, -1, 1, -1, -1, -1, -1, -1, -1, -1, -1, -1, -1 ]
		inventory: {
			0: {
				class: es.flameorb.items.Axe
				id: 0
				name: BronzeAxe
				description: LevelEDes
				totalUses: 50
				remainUses: 50
				price: 300
				power: 5
				hit: 90
				critical: 0
				weight: 7
				minRange: 1
				maxRange: 1
				level: 0
				weaponExp: 1
				physical: true
				doubleAttack: false
				onlyPower: false
			}
		}
		strategy: {
			class: es.flameorb.units.aistrategy.ClosestAIStrategy
			fullStrategy: {
				class: es.flameorb.units.aistrategy.MoreDamageGivenAIStrategy
				fullStrategy: {
					class: es.flameorb.units.aistrategy.NothingAIStrategy
				}
				weight: 4
			}
			weight: 5
		}
		position: [ 3, 3 ]
		reclutable: false
		move: 0
	}
	{
		class: es.flameorb.units.EnemyUnit
		id: 0
		name: Manteca
		shortDescription: Mock part
		fullDescription: null
		level: 2
		feclass: 5
		commander: true
		mapImage: null
		baseStats: [ 0, 0, 0, 0, 0, 0, 0, 0 ]
		baseGrowing: [ 45, 35, 0, 20, 25, 50, 10, 5 ]
		weaponSkills: [ -1, -1, 1, -1, -1, -1, -1, -1, -1, -1, -1, -1, -1 ]
		inventory: {
			0: {
				class: es.flameorb.items.Axe
				id: 0
				name: BronzeAxe
				description: LevelEDes
				totalUses: 50
				remainUses: 50
				price: 300
				power: 5
				hit: 90
				critical: 0
				weight: 7
				minRange: 1
				maxRange: 1
				level: 0
				weaponExp: 1
				physical: true
				doubleAttack: false
				onlyPower: false
			}
		}
		strategy: {
			class: es.flameorb.units.aistrategy.ClosestAIStrategy
			fullStrategy: {
				class: es.flameorb.units.aistrategy.MoreDamageGivenAIStrategy
				fullStrategy: {
					class: es.flameorb.units.aistrategy.NothingAIStrategy
				}
				weight: 5
			}
			weight: 5
		}
		position: [ 4, 7 ]
		reclutable: false
		move: 0
	}
]
initialPositions: [
	[ 14, 2 ]
	[ 14, 1 ]
]
shop: []
}